Questa cartella contiene i file di log
il file log0 contiene i tweet che il programma main.py indica come vere segnalazioni di frane con un luogo definito
il file log1 contiene i tweet che il programma main.py indica come false segnalazioni di frane (nonostante ci siano sufficenti dati per geolocalizzarli)
il file tweet storici contiene tutti i tweet accumulati dal database dal 2016 a settembre 2018 estrapolati da un file di log che accumulava i tweet processati dal vecchio programma